<!-- Generator: Adobe Illustrator 17.0.0, SVG Export Plug-In . SVG Version: 6.00 Build 0)  -->
<!DOCTYPE svg PUBLIC "-//W3C//DTD SVG 1.1//EN" "http://www.w3.org/Graphics/SVG/1.1/DTD/svg11.dtd">
<svg version="1.1" id="Layer_1" xmlns="http://www.w3.org/2000/svg" xmlns:xlink="http://www.w3.org/1999/xlink" x="0px" y="0px"
	 width="118.4px" height="118.4px" viewBox="0 0 118.4 118.4" enable-background="new 0 0 118.4 118.4" xml:space="preserve">
<g>
	<defs>
		<rect id="SVGID_1_" width="118.4" height="118.4"/>
	</defs>
	<clipPath id="SVGID_2_">
		<use xlink:href="#SVGID_1_"  overflow="visible"/>
	</clipPath>
	
		<rect x="-1.138" y="-16.784" clip-path="url(#SVGID_2_)" fill="#33B4C5" stroke="#404041" stroke-miterlimit="10" width="222.61" height="135.184"/>
	<g clip-path="url(#SVGID_2_)">
		<path fill="#231F20" d="M-60.019,32.019h4.285v34.57h-4.285V32.019z"/>
		<path fill="#231F20" d="M-27.201,54.611c0,8.715-6.038,12.513-11.734,12.513c-6.378,0-11.296-4.674-11.296-12.124
			c0-7.888,5.162-12.514,11.686-12.514C-31.778,42.487-27.201,47.405-27.201,54.611z M-45.898,54.854
			c0,5.161,2.97,9.057,7.158,9.057c4.09,0,7.158-3.847,7.158-9.154c0-3.993-1.997-9.056-7.061-9.056
			C-43.707,45.701-45.898,50.375-45.898,54.854z"/>
		<path fill="#231F20" d="M-20.578,43.022l5.162,13.926c0.536,1.558,1.12,3.408,1.509,4.82h0.097
			c0.438-1.412,0.925-3.214,1.51-4.918l4.674-13.828h4.528l-6.427,16.798c-3.068,8.083-5.162,12.221-8.083,14.753
			c-2.094,1.851-4.187,2.58-5.258,2.775l-1.071-3.604c1.071-0.341,2.483-1.022,3.749-2.094c1.168-0.925,2.629-2.58,3.603-4.771
			c0.195-0.438,0.341-0.779,0.341-1.022s-0.097-0.584-0.292-1.12l-8.716-21.716H-20.578z"/>
		<path fill="#231F20" d="M13.652,66.589l-0.341-2.97h-0.146c-1.314,1.85-3.847,3.505-7.206,3.505c-4.772,0-7.207-3.359-7.207-6.768
			c0-5.697,5.064-8.813,14.169-8.764v-0.487c0-1.947-0.536-5.453-5.356-5.453c-2.191,0-4.479,0.682-6.135,1.753l-0.974-2.824
			c1.948-1.266,4.772-2.094,7.742-2.094c7.206,0,8.959,4.918,8.959,9.641v8.813c0,2.045,0.097,4.042,0.39,5.648H13.652z
			 M13.019,54.562c-4.674-0.097-9.982,0.73-9.982,5.308c0,2.775,1.851,4.09,4.042,4.09c3.067,0,5.015-1.948,5.697-3.944
			c0.146-0.438,0.244-0.925,0.244-1.363V54.562z"/>
		<path fill="#231F20" d="M24.072,32.019h4.285v34.57h-4.285V32.019z"/>
		<path fill="#231F20" d="M40.725,36.254v6.768h6.135v3.262h-6.135v12.708c0,2.921,0.828,4.577,3.213,4.577
			c1.12,0,1.948-0.146,2.483-0.292l0.195,3.213c-0.828,0.341-2.143,0.585-3.798,0.585c-1.997,0-3.604-0.634-4.626-1.802
			c-1.217-1.267-1.655-3.36-1.655-6.135V46.285h-3.652v-3.262h3.652v-5.648L40.725,36.254z"/>
		<path fill="#231F20" d="M53.675,43.022l5.162,13.926c0.536,1.558,1.12,3.408,1.509,4.82h0.098c0.438-1.412,0.926-3.214,1.51-4.918
			l4.674-13.828h4.528l-6.427,16.798c-3.067,8.083-5.162,12.221-8.083,14.753c-2.094,1.851-4.188,2.58-5.258,2.775l-1.071-3.604
			c1.071-0.341,2.483-1.022,3.749-2.094c1.168-0.925,2.629-2.58,3.603-4.771c0.195-0.438,0.341-0.779,0.341-1.022
			s-0.097-0.584-0.292-1.12l-8.716-21.716H53.675z"/>
		<path fill="#231F20" d="M-14.615,106.289c-1.12,0.584-3.603,1.363-6.768,1.363c-7.109,0-11.735-4.82-11.735-12.027
			c0-7.255,4.967-12.514,12.66-12.514c2.532,0,4.772,0.634,5.94,1.218l-0.974,3.311c-1.022-0.584-2.629-1.119-4.966-1.119
			c-5.405,0-8.326,3.992-8.326,8.91c0,5.453,3.506,8.813,8.18,8.813c2.435,0,4.042-0.633,5.259-1.168L-14.615,106.289z"/>
		<path fill="#231F20" d="M3.45,107.165l-0.341-2.97H2.963c-1.315,1.85-3.847,3.505-7.206,3.505c-4.772,0-7.207-3.359-7.207-6.768
			c0-5.697,5.064-8.813,14.169-8.765v-0.486c0-1.948-0.536-5.454-5.356-5.454c-2.191,0-4.479,0.683-6.135,1.753l-0.974-2.823
			c1.948-1.267,4.772-2.094,7.742-2.094c7.206,0,8.959,4.917,8.959,9.641v8.813c0,2.045,0.097,4.042,0.39,5.648H3.45z M2.817,95.139
			c-4.674-0.098-9.982,0.73-9.982,5.307c0,2.775,1.851,4.091,4.042,4.091c3.067,0,5.015-1.948,5.697-3.944
			c0.146-0.438,0.244-0.925,0.244-1.363V95.139z"/>
		<path fill="#231F20" d="M13.87,90.951c0-2.775-0.048-5.161-0.194-7.353h3.749l0.146,4.626h0.195
			c1.071-3.165,3.652-5.161,6.524-5.161c0.487,0,0.828,0.048,1.217,0.146v4.042c-0.438-0.098-0.876-0.146-1.46-0.146
			c-3.019,0-5.161,2.288-5.746,5.502c-0.098,0.584-0.195,1.266-0.195,1.996v12.563H13.87V90.951z"/>
		<path fill="#231F20" d="M49.658,72.595v28.484c0,2.094,0.049,4.479,0.195,6.086h-3.847l-0.195-4.09h-0.097
			c-1.315,2.629-4.188,4.625-8.034,4.625c-5.697,0-10.079-4.82-10.079-11.978c-0.048-7.839,4.82-12.659,10.566-12.659
			c3.603,0,6.038,1.704,7.109,3.603h0.098V72.595H49.658z M45.374,93.19c0-0.535-0.049-1.266-0.195-1.801
			c-0.633-2.728-2.97-4.967-6.184-4.967c-4.431,0-7.061,3.896-7.061,9.105c0,4.771,2.337,8.715,6.963,8.715
			c2.873,0,5.502-1.898,6.281-5.112c0.146-0.584,0.195-1.168,0.195-1.85V93.19z"/>
	</g>
</g>
</svg>
