<!-- Generator: Adobe Illustrator 17.0.0, SVG Export Plug-In . SVG Version: 6.00 Build 0)  -->
<!DOCTYPE svg PUBLIC "-//W3C//DTD SVG 1.1//EN" "http://www.w3.org/Graphics/SVG/1.1/DTD/svg11.dtd">
<svg version="1.1" id="Layer_1" xmlns="http://www.w3.org/2000/svg" xmlns:xlink="http://www.w3.org/1999/xlink" x="0px" y="0px"
	 width="118.4px" height="118.4px" viewBox="0 0 118.4 118.4" enable-background="new 0 0 118.4 118.4" xml:space="preserve">
<g>
	<defs>
		<rect id="SVGID_1_" width="118.4" height="118.4"/>
	</defs>
	<clipPath id="SVGID_2_">
		<use xlink:href="#SVGID_1_"  overflow="visible"/>
	</clipPath>
	
		<rect x="-1.138" y="-16.784" clip-path="url(#SVGID_2_)" fill="#29B473" stroke="#404041" stroke-miterlimit="10" width="222.61" height="135.184"/>
	<g clip-path="url(#SVGID_2_)">
		<path fill="#231F20" d="M-9.965,33.472h4.249v32.88h-4.249V33.472z"/>
		<path fill="#231F20" d="M22.574,54.96c0,8.29-5.986,11.902-11.635,11.902c-6.324,0-11.201-4.446-11.201-11.532
			c0-7.502,5.118-11.902,11.587-11.902C18.036,43.429,22.574,48.106,22.574,54.96z M4.035,55.192c0,4.909,2.945,8.614,7.097,8.614
			c4.055,0,7.097-3.659,7.097-8.707c0-3.797-1.979-8.614-7-8.614C6.208,46.485,4.035,50.931,4.035,55.192z"/>
		<path fill="#231F20" d="M29.141,43.938l5.118,13.245c0.531,1.482,1.11,3.242,1.497,4.584h0.096
			c0.435-1.343,0.917-3.056,1.497-4.677l4.635-13.152h4.49l-6.373,15.977c-3.042,7.687-5.118,11.624-8.015,14.032
			c-2.076,1.76-4.152,2.455-5.214,2.64L25.81,73.16c1.063-0.324,2.462-0.973,3.718-1.991c1.159-0.88,2.607-2.454,3.573-4.538
			c0.193-0.417,0.338-0.741,0.338-0.973s-0.097-0.556-0.29-1.065l-8.642-20.654H29.141z"/>
		<path fill="#231F20" d="M63.081,66.353l-0.338-2.825h-0.145c-1.304,1.76-3.814,3.335-7.146,3.335
			c-4.731,0-7.145-3.195-7.145-6.438c0-5.418,5.021-8.382,14.049-8.336v-0.463c0-1.853-0.531-5.187-5.311-5.187
			c-2.172,0-4.442,0.648-6.083,1.667l-0.966-2.686c1.931-1.204,4.731-1.992,7.676-1.992c7.146,0,8.884,4.678,8.884,9.169v8.382
			c0,1.945,0.097,3.844,0.386,5.372H63.081z M62.453,54.914c-4.634-0.093-9.896,0.694-9.896,5.048c0,2.64,1.834,3.89,4.007,3.89
			c3.042,0,4.973-1.853,5.648-3.751c0.146-0.417,0.241-0.88,0.241-1.297V54.914z"/>
		<path fill="#231F20" d="M73.413,33.472h4.248v32.88h-4.248V33.472z"/>
		<path fill="#231F20" d="M89.924,37.501v6.438h6.083v3.103h-6.083v12.087c0,2.778,0.821,4.354,3.187,4.354
			c1.11,0,1.932-0.139,2.462-0.278l0.193,3.057c-0.82,0.324-2.124,0.556-3.766,0.556c-1.979,0-3.572-0.602-4.586-1.713
			c-1.207-1.204-1.642-3.196-1.642-5.835V47.041h-3.621v-3.103h3.621v-5.372L89.924,37.501z"/>
		<path fill="#231F20" d="M102.766,43.938l5.117,13.245c0.531,1.482,1.11,3.242,1.497,4.584h0.097
			c0.435-1.343,0.917-3.056,1.496-4.677l4.635-13.152h4.49l-6.373,15.977c-3.041,7.687-5.117,11.624-8.014,14.032
			c-2.076,1.76-4.152,2.455-5.215,2.64l-1.062-3.427c1.062-0.324,2.462-0.973,3.717-1.991c1.159-0.88,2.607-2.454,3.573-4.538
			c0.193-0.417,0.338-0.741,0.338-0.973s-0.097-0.556-0.29-1.065l-8.642-20.654H102.766z"/>
		<path fill="#231F20" stroke="#231F20" stroke-width="2.8347" stroke-miterlimit="10" d="M34.72,103.751
			c-1.815,0.87-5.445,1.74-10.095,1.74c-10.776,0-18.887-6.527-18.887-18.55c0-11.478,8.11-19.257,19.964-19.257
			c4.764,0,7.77,0.979,9.075,1.632l-1.191,3.862c-1.872-0.87-4.537-1.522-7.713-1.522c-8.961,0-14.917,5.494-14.917,15.122
			c0,8.976,5.388,14.742,14.689,14.742c3.006,0,6.069-0.599,8.054-1.523L34.72,103.751z"/>
		<path fill="#231F20" stroke="#231F20" stroke-width="2.8347" stroke-miterlimit="10" d="M55.53,104.947l-0.397-3.318h-0.17
			c-1.532,2.067-4.481,3.917-8.394,3.917c-5.559,0-8.395-3.754-8.395-7.562c0-6.364,5.899-9.846,16.505-9.792v-0.544
			c0-2.176-0.624-6.092-6.239-6.092c-2.552,0-5.218,0.762-7.146,1.958l-1.134-3.155c2.269-1.414,5.558-2.339,9.018-2.339
			c8.394,0,10.436,5.494,10.436,10.771v9.846c0,2.285,0.113,4.516,0.453,6.311H55.53z M54.793,91.511
			c-5.445-0.108-11.627,0.816-11.627,5.93c0,3.101,2.155,4.569,4.708,4.569c3.573,0,5.842-2.176,6.636-4.406
			c0.17-0.489,0.284-1.033,0.284-1.523V91.511z"/>
		<path fill="#231F20" stroke="#231F20" stroke-width="2.8347" stroke-miterlimit="10" d="M67.664,86.833
			c0-3.101-0.057-5.767-0.228-8.214h4.367l0.171,5.167h0.227c1.248-3.535,4.254-5.766,7.6-5.766c0.567,0,0.965,0.055,1.418,0.163
			v4.515c-0.51-0.108-1.021-0.163-1.701-0.163c-3.517,0-6.012,2.557-6.692,6.147c-0.113,0.652-0.228,1.414-0.228,2.23v14.034h-4.934
			V86.833z"/>
		<path fill="#231F20" stroke="#231F20" stroke-width="2.8347" stroke-miterlimit="10" d="M109.349,66.325v31.822
			c0,2.339,0.057,5.005,0.228,6.8h-4.48l-0.228-4.569h-0.113c-1.531,2.938-4.878,5.168-9.358,5.168
			c-6.636,0-11.74-5.386-11.74-13.382c-0.057-8.758,5.615-14.144,12.308-14.144c4.197,0,7.033,1.904,8.28,4.025h0.113V66.325
			H109.349z M104.357,89.335c0-0.599-0.057-1.414-0.227-2.013c-0.737-3.046-3.46-5.549-7.203-5.549
			c-5.161,0-8.224,4.353-8.224,10.173c0,5.331,2.723,9.737,8.11,9.737c3.347,0,6.409-2.122,7.316-5.712
			c0.17-0.652,0.227-1.306,0.227-2.067V89.335z"/>
	</g>
</g>
</svg>
